CATEGORIA,Description
SOAT,SOAT
AUTOS,AUTOMOVILES
AUTOS,GENIOPESADO
VIDA,VIDAFACIL
OTROS,HOGAR
OTROS,COPROPIEDADES
VIDA,FLEXIVIDA
VIDA,SIEMPREVIDA
OTROS,FUTUROSEGURO7080
AUTOS,EMISORAUTOMOVILES
OTROS,SALARIOSEGURO
VIDA,VIDAEDUCATIVA
OTROS,MUNDIESTADO
